{
  "questions": [
    {
      "id": "2a",
      "question": "Question One",
      "answers": [
        {
          "id": "2a1",
          "answer": "Answer One"
        },
        {
          "id": "2a2",
          "answer": "Answer Two"
        }
      ],
      "correctAnswer": "2a2"
    },
    {
      "id": "2b",
      "question": "Question Two",
      "answers": [
        {
          "id": "2b1",
          "answer": "Answer One"
        },
        {
          "id": "2b2",
          "answer": "Answer Two"
        }
      ],
      "correctAnswer": "2b1"
    },
    {
      "id": "2c",
      "question": "Question Three",
      "answers": [
        {
          "id": "2c1",
          "answer": "Answer One"
        },
        {
          "id": "2c2",
          "answer": "Answer Two"
        },
        {
          "id": "2c3",
          "answer": "Answer Three"
        }
      ],
      "correctAnswer": "2c2"
    }
  ]
}